// Jest Snapshot v1, https://goo.gl/fbAQLP

exports[`renders null with hide props 1`] = `
<TooltipView
  tooltip="Test"
>
  <View
    onMouseEnter={[Function]}
    onMouseLeave={[Function]}
    style={
      Object {
        "position": "relative",
      }
    }
  >
    <div
      onMouseEnter={[Function]}
      onMouseLeave={[Function]}
      style={
        Object {
          "display": "flex",
          "flexDirection": "column",
          "position": "relative",
        }
      }
    >
      <span>
        Children
      </span>
    </div>
  </View>
</TooltipView>
`;

exports[`renders tooltip 1`] = `
<TooltipView
  tooltip="Test"
>
  <View
    onMouseEnter={[Function]}
    onMouseLeave={[Function]}
    style={
      Object {
        "position": "relative",
      }
    }
  >
    <div
      onMouseEnter={[Function]}
      onMouseLeave={[Function]}
      style={
        Object {
          "display": "flex",
          "flexDirection": "column",
          "position": "relative",
        }
      }
    >
      <span>
        Children
      </span>
    </div>
  </View>
</TooltipView>
`;

exports[`renders tooltip 2`] = `
<TooltipView
  tooltip="Test"
>
  <View
    onMouseEnter={[Function]}
    onMouseLeave={[Function]}
    style={
      Object {
        "position": "relative",
      }
    }
  >
    <div
      onMouseEnter={[Function]}
      onMouseLeave={[Function]}
      style={
        Object {
          "display": "flex",
          "flexDirection": "column",
          "position": "relative",
        }
      }
    >
      <span>
        Children
      </span>
      <View
        style={
          Object {
            "backgroundColor": "#6a6a6aEE",
            "borderRadius": 4,
            "left": 0,
            "padding": "4px 10px",
            "position": "absolute",
            "top": -24,
          }
        }
      >
        <div
          style={
            Object {
              "backgroundColor": "#6a6a6aEE",
              "borderRadius": 4,
              "display": "flex",
              "flexDirection": "column",
              "left": 0,
              "padding": "4px 10px",
              "position": "absolute",
              "top": -24,
            }
          }
        >
          <span
            style={
              Object {
                "color": "white",
                "fontSize": 12,
              }
            }
          >
            Test
          </span>
        </div>
      </View>
    </div>
  </View>
</TooltipView>
`;

exports[`renders tooltip 3`] = `
<TooltipView
  tooltip="Test"
>
  <View
    onMouseEnter={[Function]}
    onMouseLeave={[Function]}
    style={
      Object {
        "position": "relative",
      }
    }
  >
    <div
      onMouseEnter={[Function]}
      onMouseLeave={[Function]}
      style={
        Object {
          "display": "flex",
          "flexDirection": "column",
          "position": "relative",
        }
      }
    >
      <span>
        Children
      </span>
    </div>
  </View>
</TooltipView>
`;

exports[`renders without children 1`] = `
<TooltipView
  tooltip="Test"
>
  <View
    onMouseEnter={[Function]}
    onMouseLeave={[Function]}
    style={
      Object {
        "position": "relative",
      }
    }
  >
    <div
      onMouseEnter={[Function]}
      onMouseLeave={[Function]}
      style={
        Object {
          "display": "flex",
          "flexDirection": "column",
          "position": "relative",
        }
      }
    />
  </View>
</TooltipView>
`;
