// Jest Snapshot v1, https://goo.gl/fbAQLP

exports[`renders 1`] = `
<VideoItem
  data={
    Object {
      "channelTitle": "Channel Title",
      "publishTime": "2020-04-21T13:45:02Z",
      "thumbnails": Object {
        "default": Object {
          "url": "https://i.ytimg.com/vi/zOjov-2OZ0E/default.jpg",
        },
        "high": Object {
          "url": "https://i.ytimg.com/vi/zOjov-2OZ0E/hqdefault.jpg",
        },
        "medium": Object {
          "url": "https://i.ytimg.com/vi/zOjov-2OZ0E/mqdefault.jpg",
        },
      },
      "title": "Test title",
    }
  }
>
  <View
    style={
      Object {
        "display": "flex",
        "minWidth": 220,
        "position": "relative",
        "width": "25%",
      }
    }
  >
    <div
      style={
        Object {
          "display": "flex",
          "flexDirection": "column",
          "minWidth": 220,
          "position": "relative",
          "width": "25%",
        }
      }
    >
      <VideoElements
        data={
          Object {
            "channelTitle": "Channel Title",
            "publishTime": "2020-04-21T13:45:02Z",
            "thumbnails": Object {
              "default": Object {
                "url": "https://i.ytimg.com/vi/zOjov-2OZ0E/default.jpg",
              },
              "high": Object {
                "url": "https://i.ytimg.com/vi/zOjov-2OZ0E/hqdefault.jpg",
              },
              "medium": Object {
                "url": "https://i.ytimg.com/vi/zOjov-2OZ0E/mqdefault.jpg",
              },
            },
            "title": "Test title",
          }
        }
        onMouseEnter={[Function]}
      >
        <View
          onMouseEnter={[Function]}
          style={
            Object {
              "margin": 12,
            }
          }
        >
          <div
            onMouseEnter={[Function]}
            style={
              Object {
                "display": "flex",
                "flexDirection": "column",
                "margin": 12,
              }
            }
          >
            <View
              style={
                Object {
                  "position": "relative",
                }
              }
            >
              <div
                style={
                  Object {
                    "display": "flex",
                    "flexDirection": "column",
                    "position": "relative",
                  }
                }
              >
                <img
                  src="https://i.ytimg.com/vi/zOjov-2OZ0E/mqdefault.jpg"
                  style={
                    Object {
                      "aspectRatio": "1.8",
                      "objectFit": "cover",
                      "width": "100%",
                    }
                  }
                />
              </div>
            </View>
            <View
              style={
                Object {
                  "marginBottom": 6,
                  "marginLeft": 6,
                }
              }
            >
              <div
                style={
                  Object {
                    "display": "flex",
                    "flexDirection": "column",
                    "marginBottom": 6,
                    "marginLeft": 6,
                  }
                }
              >
                <span
                  style={
                    Object {
                      "fontSize": 14,
                      "fontWeight": "bold",
                      "lineHeight": "20px",
                      "margin": "12px 0 6px 0",
                    }
                  }
                >
                  Test title
                </span>
                <TooltipView
                  tooltip="Channel Title"
                >
                  <View
                    onMouseEnter={[Function]}
                    onMouseLeave={[Function]}
                    style={
                      Object {
                        "position": "relative",
                      }
                    }
                  >
                    <div
                      onMouseEnter={[Function]}
                      onMouseLeave={[Function]}
                      style={
                        Object {
                          "display": "flex",
                          "flexDirection": "column",
                          "position": "relative",
                        }
                      }
                    >
                      <span
                        style={
                          Object {
                            "fontSize": 12,
                            "lineHeight": "18px",
                          }
                        }
                      >
                        Channel Title
                      </span>
                    </div>
                  </View>
                </TooltipView>
                <span
                  style={
                    Object {
                      "fontSize": 12,
                      "lineHeight": "18px",
                    }
                  }
                >
                  4/21/2020
                </span>
              </div>
            </View>
          </div>
        </View>
      </VideoElements>
    </div>
  </View>
</VideoItem>
`;

exports[`renders hover 1`] = `
<VideoItem
  data={
    Object {
      "channelTitle": "Channel Title",
      "publishTime": "2020-04-21T13:45:02Z",
      "thumbnails": Object {
        "default": Object {
          "url": "https://i.ytimg.com/vi/zOjov-2OZ0E/default.jpg",
        },
        "high": Object {
          "url": "https://i.ytimg.com/vi/zOjov-2OZ0E/hqdefault.jpg",
        },
        "medium": Object {
          "url": "https://i.ytimg.com/vi/zOjov-2OZ0E/mqdefault.jpg",
        },
      },
      "title": "Test title",
    }
  }
>
  <View
    style={
      Object {
        "display": "flex",
        "minWidth": 220,
        "position": "relative",
        "width": "25%",
      }
    }
  >
    <div
      style={
        Object {
          "display": "flex",
          "flexDirection": "column",
          "minWidth": 220,
          "position": "relative",
          "width": "25%",
        }
      }
    >
      <VideoElements
        data={
          Object {
            "channelTitle": "Channel Title",
            "publishTime": "2020-04-21T13:45:02Z",
            "thumbnails": Object {
              "default": Object {
                "url": "https://i.ytimg.com/vi/zOjov-2OZ0E/default.jpg",
              },
              "high": Object {
                "url": "https://i.ytimg.com/vi/zOjov-2OZ0E/hqdefault.jpg",
              },
              "medium": Object {
                "url": "https://i.ytimg.com/vi/zOjov-2OZ0E/mqdefault.jpg",
              },
            },
            "title": "Test title",
          }
        }
        onMouseEnter={[Function]}
      >
        <View
          onMouseEnter={[Function]}
          style={
            Object {
              "margin": 12,
            }
          }
        >
          <div
            onMouseEnter={[Function]}
            style={
              Object {
                "display": "flex",
                "flexDirection": "column",
                "margin": 12,
              }
            }
          >
            <View
              style={
                Object {
                  "position": "relative",
                }
              }
            >
              <div
                style={
                  Object {
                    "display": "flex",
                    "flexDirection": "column",
                    "position": "relative",
                  }
                }
              >
                <img
                  src="https://i.ytimg.com/vi/zOjov-2OZ0E/mqdefault.jpg"
                  style={
                    Object {
                      "aspectRatio": "1.8",
                      "objectFit": "cover",
                      "width": "100%",
                    }
                  }
                />
              </div>
            </View>
            <View
              style={
                Object {
                  "marginBottom": 6,
                  "marginLeft": 6,
                }
              }
            >
              <div
                style={
                  Object {
                    "display": "flex",
                    "flexDirection": "column",
                    "marginBottom": 6,
                    "marginLeft": 6,
                  }
                }
              >
                <span
                  style={
                    Object {
                      "fontSize": 14,
                      "fontWeight": "bold",
                      "lineHeight": "20px",
                      "margin": "12px 0 6px 0",
                    }
                  }
                >
                  Test title
                </span>
                <TooltipView
                  tooltip="Channel Title"
                >
                  <View
                    onMouseEnter={[Function]}
                    onMouseLeave={[Function]}
                    style={
                      Object {
                        "position": "relative",
                      }
                    }
                  >
                    <div
                      onMouseEnter={[Function]}
                      onMouseLeave={[Function]}
                      style={
                        Object {
                          "display": "flex",
                          "flexDirection": "column",
                          "position": "relative",
                        }
                      }
                    >
                      <span
                        style={
                          Object {
                            "fontSize": 12,
                            "lineHeight": "18px",
                          }
                        }
                      >
                        Channel Title
                      </span>
                    </div>
                  </View>
                </TooltipView>
                <span
                  style={
                    Object {
                      "fontSize": 12,
                      "lineHeight": "18px",
                    }
                  }
                >
                  4/21/2020
                </span>
              </div>
            </View>
          </div>
        </View>
      </VideoElements>
    </div>
  </View>
</VideoItem>
`;

exports[`renders hover 2`] = `
<VideoItem
  data={
    Object {
      "channelTitle": "Channel Title",
      "publishTime": "2020-04-21T13:45:02Z",
      "thumbnails": Object {
        "default": Object {
          "url": "https://i.ytimg.com/vi/zOjov-2OZ0E/default.jpg",
        },
        "high": Object {
          "url": "https://i.ytimg.com/vi/zOjov-2OZ0E/hqdefault.jpg",
        },
        "medium": Object {
          "url": "https://i.ytimg.com/vi/zOjov-2OZ0E/mqdefault.jpg",
        },
      },
      "title": "Test title",
    }
  }
>
  <View
    style={
      Object {
        "display": "flex",
        "minWidth": 220,
        "position": "relative",
        "width": "25%",
      }
    }
  >
    <div
      style={
        Object {
          "display": "flex",
          "flexDirection": "column",
          "minWidth": 220,
          "position": "relative",
          "width": "25%",
        }
      }
    >
      <VideoElements
        data={
          Object {
            "channelTitle": "Channel Title",
            "publishTime": "2020-04-21T13:45:02Z",
            "thumbnails": Object {
              "default": Object {
                "url": "https://i.ytimg.com/vi/zOjov-2OZ0E/default.jpg",
              },
              "high": Object {
                "url": "https://i.ytimg.com/vi/zOjov-2OZ0E/hqdefault.jpg",
              },
              "medium": Object {
                "url": "https://i.ytimg.com/vi/zOjov-2OZ0E/mqdefault.jpg",
              },
            },
            "title": "Test title",
          }
        }
        onMouseEnter={[Function]}
      >
        <View
          onMouseEnter={[Function]}
          style={
            Object {
              "margin": 12,
            }
          }
        >
          <div
            onMouseEnter={[Function]}
            style={
              Object {
                "display": "flex",
                "flexDirection": "column",
                "margin": 12,
              }
            }
          >
            <View
              style={
                Object {
                  "position": "relative",
                }
              }
            >
              <div
                style={
                  Object {
                    "display": "flex",
                    "flexDirection": "column",
                    "position": "relative",
                  }
                }
              >
                <img
                  src="https://i.ytimg.com/vi/zOjov-2OZ0E/mqdefault.jpg"
                  style={
                    Object {
                      "aspectRatio": "1.8",
                      "objectFit": "cover",
                      "width": "100%",
                    }
                  }
                />
              </div>
            </View>
            <View
              style={
                Object {
                  "marginBottom": 6,
                  "marginLeft": 6,
                }
              }
            >
              <div
                style={
                  Object {
                    "display": "flex",
                    "flexDirection": "column",
                    "marginBottom": 6,
                    "marginLeft": 6,
                  }
                }
              >
                <span
                  style={
                    Object {
                      "fontSize": 14,
                      "fontWeight": "bold",
                      "lineHeight": "20px",
                      "margin": "12px 0 6px 0",
                    }
                  }
                >
                  Test title
                </span>
                <TooltipView
                  tooltip="Channel Title"
                >
                  <View
                    onMouseEnter={[Function]}
                    onMouseLeave={[Function]}
                    style={
                      Object {
                        "position": "relative",
                      }
                    }
                  >
                    <div
                      onMouseEnter={[Function]}
                      onMouseLeave={[Function]}
                      style={
                        Object {
                          "display": "flex",
                          "flexDirection": "column",
                          "position": "relative",
                        }
                      }
                    >
                      <span
                        style={
                          Object {
                            "fontSize": 12,
                            "lineHeight": "18px",
                          }
                        }
                      >
                        Channel Title
                      </span>
                    </div>
                  </View>
                </TooltipView>
                <span
                  style={
                    Object {
                      "fontSize": 12,
                      "lineHeight": "18px",
                    }
                  }
                >
                  4/21/2020
                </span>
              </div>
            </View>
          </div>
        </View>
      </VideoElements>
      <View
        className="modal undefined"
        onMouseEnter={[Function]}
        onMouseLeave={[Function]}
        style={
          Object {
            "backgroundColor": "white",
            "borderRadius": 4,
            "boxShadow": null,
            "left": 0,
            "position": "absolute",
            "right": 0,
            "top": 0,
            "transform": null,
            "zIndex": 1,
          }
        }
      >
        <div
          className="modal undefined"
          onMouseEnter={[Function]}
          onMouseLeave={[Function]}
          style={
            Object {
              "backgroundColor": "white",
              "borderRadius": 4,
              "boxShadow": null,
              "display": "flex",
              "flexDirection": "column",
              "left": 0,
              "position": "absolute",
              "right": 0,
              "top": 0,
              "transform": null,
              "zIndex": 1,
            }
          }
        >
          <VideoElements
            data={
              Object {
                "channelTitle": "Channel Title",
                "publishTime": "2020-04-21T13:45:02Z",
                "thumbnails": Object {
                  "default": Object {
                    "url": "https://i.ytimg.com/vi/zOjov-2OZ0E/default.jpg",
                  },
                  "high": Object {
                    "url": "https://i.ytimg.com/vi/zOjov-2OZ0E/hqdefault.jpg",
                  },
                  "medium": Object {
                    "url": "https://i.ytimg.com/vi/zOjov-2OZ0E/mqdefault.jpg",
                  },
                },
                "title": "Test title",
              }
            }
            expanded={false}
            overlay={true}
          >
            <View
              style={
                Object {
                  "margin": 12,
                }
              }
            >
              <div
                style={
                  Object {
                    "display": "flex",
                    "flexDirection": "column",
                    "margin": 12,
                  }
                }
              >
                <View
                  style={
                    Object {
                      "position": "relative",
                    }
                  }
                >
                  <div
                    style={
                      Object {
                        "display": "flex",
                        "flexDirection": "column",
                        "position": "relative",
                      }
                    }
                  >
                    <img
                      src="https://i.ytimg.com/vi/zOjov-2OZ0E/mqdefault.jpg"
                      style={
                        Object {
                          "aspectRatio": "1.8",
                          "objectFit": "cover",
                          "width": "100%",
                        }
                      }
                    />
                    <View
                      style={
                        Object {
                          "backgroundColor": "black",
                          "bottom": 8,
                          "padding": 3,
                          "position": "absolute",
                          "right": 8,
                        }
                      }
                    >
                      <div
                        style={
                          Object {
                            "backgroundColor": "black",
                            "bottom": 8,
                            "display": "flex",
                            "flexDirection": "column",
                            "padding": 3,
                            "position": "absolute",
                            "right": 8,
                          }
                        }
                      >
                        <span
                          style={
                            Object {
                              "color": "white",
                              "fontSize": 11,
                            }
                          }
                        >
                          Keep hovering to expand playing
                        </span>
                      </div>
                    </View>
                  </div>
                </View>
                <View
                  style={
                    Object {
                      "marginBottom": 6,
                      "marginLeft": 6,
                    }
                  }
                >
                  <div
                    style={
                      Object {
                        "display": "flex",
                        "flexDirection": "column",
                        "marginBottom": 6,
                        "marginLeft": 6,
                      }
                    }
                  >
                    <span
                      style={
                        Object {
                          "fontSize": 14,
                          "fontWeight": "bold",
                          "lineHeight": "20px",
                          "margin": "12px 0 6px 0",
                        }
                      }
                    >
                      Test title
                    </span>
                    <TooltipView
                      tooltip="Channel Title"
                    >
                      <View
                        onMouseEnter={[Function]}
                        onMouseLeave={[Function]}
                        style={
                          Object {
                            "position": "relative",
                          }
                        }
                      >
                        <div
                          onMouseEnter={[Function]}
                          onMouseLeave={[Function]}
                          style={
                            Object {
                              "display": "flex",
                              "flexDirection": "column",
                              "position": "relative",
                            }
                          }
                        >
                          <span
                            style={
                              Object {
                                "fontSize": 12,
                                "lineHeight": "18px",
                              }
                            }
                          >
                            Channel Title
                          </span>
                        </div>
                      </View>
                    </TooltipView>
                    <span
                      style={
                        Object {
                          "fontSize": 12,
                          "lineHeight": "18px",
                        }
                      }
                    >
                      4/21/2020
                    </span>
                  </div>
                </View>
              </div>
            </View>
          </VideoElements>
        </div>
      </View>
    </div>
  </View>
</VideoItem>
`;

exports[`renders hover 3`] = `
<VideoItem
  data={
    Object {
      "channelTitle": "Channel Title",
      "publishTime": "2020-04-21T13:45:02Z",
      "thumbnails": Object {
        "default": Object {
          "url": "https://i.ytimg.com/vi/zOjov-2OZ0E/default.jpg",
        },
        "high": Object {
          "url": "https://i.ytimg.com/vi/zOjov-2OZ0E/hqdefault.jpg",
        },
        "medium": Object {
          "url": "https://i.ytimg.com/vi/zOjov-2OZ0E/mqdefault.jpg",
        },
      },
      "title": "Test title",
    }
  }
>
  <View
    style={
      Object {
        "display": "flex",
        "minWidth": 220,
        "position": "relative",
        "width": "25%",
      }
    }
  >
    <div
      style={
        Object {
          "display": "flex",
          "flexDirection": "column",
          "minWidth": 220,
          "position": "relative",
          "width": "25%",
        }
      }
    >
      <VideoElements
        data={
          Object {
            "channelTitle": "Channel Title",
            "publishTime": "2020-04-21T13:45:02Z",
            "thumbnails": Object {
              "default": Object {
                "url": "https://i.ytimg.com/vi/zOjov-2OZ0E/default.jpg",
              },
              "high": Object {
                "url": "https://i.ytimg.com/vi/zOjov-2OZ0E/hqdefault.jpg",
              },
              "medium": Object {
                "url": "https://i.ytimg.com/vi/zOjov-2OZ0E/mqdefault.jpg",
              },
            },
            "title": "Test title",
          }
        }
        onMouseEnter={[Function]}
      >
        <View
          onMouseEnter={[Function]}
          style={
            Object {
              "margin": 12,
            }
          }
        >
          <div
            onMouseEnter={[Function]}
            style={
              Object {
                "display": "flex",
                "flexDirection": "column",
                "margin": 12,
              }
            }
          >
            <View
              style={
                Object {
                  "position": "relative",
                }
              }
            >
              <div
                style={
                  Object {
                    "display": "flex",
                    "flexDirection": "column",
                    "position": "relative",
                  }
                }
              >
                <img
                  src="https://i.ytimg.com/vi/zOjov-2OZ0E/mqdefault.jpg"
                  style={
                    Object {
                      "aspectRatio": "1.8",
                      "objectFit": "cover",
                      "width": "100%",
                    }
                  }
                />
              </div>
            </View>
            <View
              style={
                Object {
                  "marginBottom": 6,
                  "marginLeft": 6,
                }
              }
            >
              <div
                style={
                  Object {
                    "display": "flex",
                    "flexDirection": "column",
                    "marginBottom": 6,
                    "marginLeft": 6,
                  }
                }
              >
                <span
                  style={
                    Object {
                      "fontSize": 14,
                      "fontWeight": "bold",
                      "lineHeight": "20px",
                      "margin": "12px 0 6px 0",
                    }
                  }
                >
                  Test title
                </span>
                <TooltipView
                  tooltip="Channel Title"
                >
                  <View
                    onMouseEnter={[Function]}
                    onMouseLeave={[Function]}
                    style={
                      Object {
                        "position": "relative",
                      }
                    }
                  >
                    <div
                      onMouseEnter={[Function]}
                      onMouseLeave={[Function]}
                      style={
                        Object {
                          "display": "flex",
                          "flexDirection": "column",
                          "position": "relative",
                        }
                      }
                    >
                      <span
                        style={
                          Object {
                            "fontSize": 12,
                            "lineHeight": "18px",
                          }
                        }
                      >
                        Channel Title
                      </span>
                    </div>
                  </View>
                </TooltipView>
                <span
                  style={
                    Object {
                      "fontSize": 12,
                      "lineHeight": "18px",
                    }
                  }
                >
                  4/21/2020
                </span>
              </div>
            </View>
          </div>
        </View>
      </VideoElements>
      <View
        className="modal undefined"
        onMouseEnter={[Function]}
        onMouseLeave={[Function]}
        style={
          Object {
            "backgroundColor": "white",
            "borderRadius": 4,
            "boxShadow": null,
            "left": 0,
            "position": "absolute",
            "right": 0,
            "top": 0,
            "transform": null,
            "zIndex": 1,
          }
        }
      >
        <div
          className="modal undefined"
          onMouseEnter={[Function]}
          onMouseLeave={[Function]}
          style={
            Object {
              "backgroundColor": "white",
              "borderRadius": 4,
              "boxShadow": null,
              "display": "flex",
              "flexDirection": "column",
              "left": 0,
              "position": "absolute",
              "right": 0,
              "top": 0,
              "transform": null,
              "zIndex": 1,
            }
          }
        >
          <VideoElements
            data={
              Object {
                "channelTitle": "Channel Title",
                "publishTime": "2020-04-21T13:45:02Z",
                "thumbnails": Object {
                  "default": Object {
                    "url": "https://i.ytimg.com/vi/zOjov-2OZ0E/default.jpg",
                  },
                  "high": Object {
                    "url": "https://i.ytimg.com/vi/zOjov-2OZ0E/hqdefault.jpg",
                  },
                  "medium": Object {
                    "url": "https://i.ytimg.com/vi/zOjov-2OZ0E/mqdefault.jpg",
                  },
                },
                "title": "Test title",
              }
            }
            expanded={false}
            overlay={true}
          >
            <View
              style={
                Object {
                  "margin": 12,
                }
              }
            >
              <div
                style={
                  Object {
                    "display": "flex",
                    "flexDirection": "column",
                    "margin": 12,
                  }
                }
              >
                <View
                  style={
                    Object {
                      "position": "relative",
                    }
                  }
                >
                  <div
                    style={
                      Object {
                        "display": "flex",
                        "flexDirection": "column",
                        "position": "relative",
                      }
                    }
                  >
                    <img
                      src="https://i.ytimg.com/vi/zOjov-2OZ0E/mqdefault.jpg"
                      style={
                        Object {
                          "aspectRatio": "1.8",
                          "objectFit": "cover",
                          "width": "100%",
                        }
                      }
                    />
                    <View
                      style={
                        Object {
                          "backgroundColor": "black",
                          "bottom": 8,
                          "padding": 3,
                          "position": "absolute",
                          "right": 8,
                        }
                      }
                    >
                      <div
                        style={
                          Object {
                            "backgroundColor": "black",
                            "bottom": 8,
                            "display": "flex",
                            "flexDirection": "column",
                            "padding": 3,
                            "position": "absolute",
                            "right": 8,
                          }
                        }
                      >
                        <span
                          style={
                            Object {
                              "color": "white",
                              "fontSize": 11,
                            }
                          }
                        >
                          Keep hovering to expand playing
                        </span>
                      </div>
                    </View>
                  </div>
                </View>
                <View
                  style={
                    Object {
                      "marginBottom": 6,
                      "marginLeft": 6,
                    }
                  }
                >
                  <div
                    style={
                      Object {
                        "display": "flex",
                        "flexDirection": "column",
                        "marginBottom": 6,
                        "marginLeft": 6,
                      }
                    }
                  >
                    <span
                      style={
                        Object {
                          "fontSize": 14,
                          "fontWeight": "bold",
                          "lineHeight": "20px",
                          "margin": "12px 0 6px 0",
                        }
                      }
                    >
                      Test title
                    </span>
                    <TooltipView
                      tooltip="Channel Title"
                    >
                      <View
                        onMouseEnter={[Function]}
                        onMouseLeave={[Function]}
                        style={
                          Object {
                            "position": "relative",
                          }
                        }
                      >
                        <div
                          onMouseEnter={[Function]}
                          onMouseLeave={[Function]}
                          style={
                            Object {
                              "display": "flex",
                              "flexDirection": "column",
                              "position": "relative",
                            }
                          }
                        >
                          <span
                            style={
                              Object {
                                "fontSize": 12,
                                "lineHeight": "18px",
                              }
                            }
                          >
                            Channel Title
                          </span>
                        </div>
                      </View>
                    </TooltipView>
                    <span
                      style={
                        Object {
                          "fontSize": 12,
                          "lineHeight": "18px",
                        }
                      }
                    >
                      4/21/2020
                    </span>
                  </div>
                </View>
              </div>
            </View>
          </VideoElements>
        </div>
      </View>
    </div>
  </View>
</VideoItem>
`;

exports[`renders hover 4`] = `
<VideoItem
  data={
    Object {
      "channelTitle": "Channel Title",
      "publishTime": "2020-04-21T13:45:02Z",
      "thumbnails": Object {
        "default": Object {
          "url": "https://i.ytimg.com/vi/zOjov-2OZ0E/default.jpg",
        },
        "high": Object {
          "url": "https://i.ytimg.com/vi/zOjov-2OZ0E/hqdefault.jpg",
        },
        "medium": Object {
          "url": "https://i.ytimg.com/vi/zOjov-2OZ0E/mqdefault.jpg",
        },
      },
      "title": "Test title",
    }
  }
>
  <View
    style={
      Object {
        "display": "flex",
        "minWidth": 220,
        "position": "relative",
        "width": "25%",
      }
    }
  >
    <div
      style={
        Object {
          "display": "flex",
          "flexDirection": "column",
          "minWidth": 220,
          "position": "relative",
          "width": "25%",
        }
      }
    >
      <VideoElements
        data={
          Object {
            "channelTitle": "Channel Title",
            "publishTime": "2020-04-21T13:45:02Z",
            "thumbnails": Object {
              "default": Object {
                "url": "https://i.ytimg.com/vi/zOjov-2OZ0E/default.jpg",
              },
              "high": Object {
                "url": "https://i.ytimg.com/vi/zOjov-2OZ0E/hqdefault.jpg",
              },
              "medium": Object {
                "url": "https://i.ytimg.com/vi/zOjov-2OZ0E/mqdefault.jpg",
              },
            },
            "title": "Test title",
          }
        }
        onMouseEnter={[Function]}
      >
        <View
          onMouseEnter={[Function]}
          style={
            Object {
              "margin": 12,
            }
          }
        >
          <div
            onMouseEnter={[Function]}
            style={
              Object {
                "display": "flex",
                "flexDirection": "column",
                "margin": 12,
              }
            }
          >
            <View
              style={
                Object {
                  "position": "relative",
                }
              }
            >
              <div
                style={
                  Object {
                    "display": "flex",
                    "flexDirection": "column",
                    "position": "relative",
                  }
                }
              >
                <img
                  src="https://i.ytimg.com/vi/zOjov-2OZ0E/mqdefault.jpg"
                  style={
                    Object {
                      "aspectRatio": "1.8",
                      "objectFit": "cover",
                      "width": "100%",
                    }
                  }
                />
              </div>
            </View>
            <View
              style={
                Object {
                  "marginBottom": 6,
                  "marginLeft": 6,
                }
              }
            >
              <div
                style={
                  Object {
                    "display": "flex",
                    "flexDirection": "column",
                    "marginBottom": 6,
                    "marginLeft": 6,
                  }
                }
              >
                <span
                  style={
                    Object {
                      "fontSize": 14,
                      "fontWeight": "bold",
                      "lineHeight": "20px",
                      "margin": "12px 0 6px 0",
                    }
                  }
                >
                  Test title
                </span>
                <TooltipView
                  tooltip="Channel Title"
                >
                  <View
                    onMouseEnter={[Function]}
                    onMouseLeave={[Function]}
                    style={
                      Object {
                        "position": "relative",
                      }
                    }
                  >
                    <div
                      onMouseEnter={[Function]}
                      onMouseLeave={[Function]}
                      style={
                        Object {
                          "display": "flex",
                          "flexDirection": "column",
                          "position": "relative",
                        }
                      }
                    >
                      <span
                        style={
                          Object {
                            "fontSize": 12,
                            "lineHeight": "18px",
                          }
                        }
                      >
                        Channel Title
                      </span>
                    </div>
                  </View>
                </TooltipView>
                <span
                  style={
                    Object {
                      "fontSize": 12,
                      "lineHeight": "18px",
                    }
                  }
                >
                  4/21/2020
                </span>
              </div>
            </View>
          </div>
        </View>
      </VideoElements>
      <View
        className="modal undefined"
        onMouseEnter={[Function]}
        onMouseLeave={[Function]}
        style={
          Object {
            "backgroundColor": "white",
            "borderRadius": 4,
            "boxShadow": null,
            "left": 0,
            "position": "absolute",
            "right": 0,
            "top": 0,
            "transform": null,
            "zIndex": 1,
          }
        }
      >
        <div
          className="modal undefined"
          onMouseEnter={[Function]}
          onMouseLeave={[Function]}
          style={
            Object {
              "backgroundColor": "white",
              "borderRadius": 4,
              "boxShadow": null,
              "display": "flex",
              "flexDirection": "column",
              "left": 0,
              "position": "absolute",
              "right": 0,
              "top": 0,
              "transform": null,
              "zIndex": 1,
            }
          }
        >
          <VideoElements
            data={
              Object {
                "channelTitle": "Channel Title",
                "publishTime": "2020-04-21T13:45:02Z",
                "thumbnails": Object {
                  "default": Object {
                    "url": "https://i.ytimg.com/vi/zOjov-2OZ0E/default.jpg",
                  },
                  "high": Object {
                    "url": "https://i.ytimg.com/vi/zOjov-2OZ0E/hqdefault.jpg",
                  },
                  "medium": Object {
                    "url": "https://i.ytimg.com/vi/zOjov-2OZ0E/mqdefault.jpg",
                  },
                },
                "title": "Test title",
              }
            }
            expanded={false}
            overlay={true}
          >
            <View
              style={
                Object {
                  "margin": 12,
                }
              }
            >
              <div
                style={
                  Object {
                    "display": "flex",
                    "flexDirection": "column",
                    "margin": 12,
                  }
                }
              >
                <View
                  style={
                    Object {
                      "position": "relative",
                    }
                  }
                >
                  <div
                    style={
                      Object {
                        "display": "flex",
                        "flexDirection": "column",
                        "position": "relative",
                      }
                    }
                  >
                    <img
                      src="https://i.ytimg.com/vi/zOjov-2OZ0E/mqdefault.jpg"
                      style={
                        Object {
                          "aspectRatio": "1.8",
                          "objectFit": "cover",
                          "width": "100%",
                        }
                      }
                    />
                    <View
                      style={
                        Object {
                          "backgroundColor": "black",
                          "bottom": 8,
                          "padding": 3,
                          "position": "absolute",
                          "right": 8,
                        }
                      }
                    >
                      <div
                        style={
                          Object {
                            "backgroundColor": "black",
                            "bottom": 8,
                            "display": "flex",
                            "flexDirection": "column",
                            "padding": 3,
                            "position": "absolute",
                            "right": 8,
                          }
                        }
                      >
                        <span
                          style={
                            Object {
                              "color": "white",
                              "fontSize": 11,
                            }
                          }
                        >
                          Keep hovering to expand playing
                        </span>
                      </div>
                    </View>
                  </div>
                </View>
                <View
                  style={
                    Object {
                      "marginBottom": 6,
                      "marginLeft": 6,
                    }
                  }
                >
                  <div
                    style={
                      Object {
                        "display": "flex",
                        "flexDirection": "column",
                        "marginBottom": 6,
                        "marginLeft": 6,
                      }
                    }
                  >
                    <span
                      style={
                        Object {
                          "fontSize": 14,
                          "fontWeight": "bold",
                          "lineHeight": "20px",
                          "margin": "12px 0 6px 0",
                        }
                      }
                    >
                      Test title
                    </span>
                    <TooltipView
                      tooltip="Channel Title"
                    >
                      <View
                        onMouseEnter={[Function]}
                        onMouseLeave={[Function]}
                        style={
                          Object {
                            "position": "relative",
                          }
                        }
                      >
                        <div
                          onMouseEnter={[Function]}
                          onMouseLeave={[Function]}
                          style={
                            Object {
                              "display": "flex",
                              "flexDirection": "column",
                              "position": "relative",
                            }
                          }
                        >
                          <span
                            style={
                              Object {
                                "fontSize": 12,
                                "lineHeight": "18px",
                              }
                            }
                          >
                            Channel Title
                          </span>
                        </div>
                      </View>
                    </TooltipView>
                    <span
                      style={
                        Object {
                          "fontSize": 12,
                          "lineHeight": "18px",
                        }
                      }
                    >
                      4/21/2020
                    </span>
                  </div>
                </View>
              </div>
            </View>
          </VideoElements>
        </div>
      </View>
    </div>
  </View>
</VideoItem>
`;
